%YAML 1.1
%TAG !u! tag:unity3d.com,2011:
--- !u!114 &11400000
MonoBehaviour:
  m_ObjectHideFlags: 0
  m_CorrespondingSourceObject: {fileID: 0}
  m_PrefabInstance: {fileID: 0}
  m_PrefabAsset: {fileID: 0}
  m_GameObject: {fileID: 0}
  m_Enabled: 1
  m_EditorHideFlags: 0
  m_Script: {fileID: 11500000, guid: 210c7ab1c5463d34588351dc1be84938, type: 3}
  m_Name: Cat_Fallback 1
  m_EditorClassIdentifier: 
  comment: Fallback
  nodes:
  - isPlayer: 0
    emotion: 0
    dialogue: ...I don't care, nya.
    speakerAnimation: Talk
    listenerAnimation: Default
    eventsToDo: []
  - isPlayer: 0
    emotion: 0
    dialogue: I just want to know who stole my EYEPATCH!!
    speakerAnimation: Talk
    listenerAnimation: Default
    eventsToDo:
    - evidenceToGive: {fileID: 0}
      objectiveToComplete: {fileID: 0}
