%YAML 1.1
%TAG !u! tag:unity3d.com,2011:
--- !u!114 &11400000
MonoBehaviour:
  m_ObjectHideFlags: 0
  m_CorrespondingSourceObject: {fileID: 0}
  m_PrefabInstance: {fileID: 0}
  m_PrefabAsset: {fileID: 0}
  m_GameObject: {fileID: 0}
  m_Enabled: 1
  m_EditorHideFlags: 0
  m_Script: {fileID: 11500000, guid: 210c7ab1c5463d34588351dc1be84938, type: 3}
  m_Name: Cat_08
  m_EditorClassIdentifier: 
  comment: B9
  nodes:
  - isPlayer: 0
    emotion: 0
    dialogue: ...
    speakerAnimation: 
    listenerAnimation: 
    stopMusic: 0
    eventsToDo: []
  - isPlayer: 0
    emotion: 0
    dialogue: THAT RODENT DID WHAAAAAAAT, NYA!?
    speakerAnimation: 
    listenerAnimation: 
    stopMusic: 0
    eventsToDo: []
  - isPlayer: 0
    emotion: 0
    dialogue: Argh, I have no angy energy left for him...
    speakerAnimation: 
    listenerAnimation: 
    stopMusic: 0
    eventsToDo: []
  - isPlayer: 1
    emotion: 0
    dialogue: You never thought to check if the eyepatch was the right one?
    speakerAnimation: 
    listenerAnimation: 
    stopMusic: 0
    eventsToDo: []
  - isPlayer: 0
    emotion: 0
    dialogue: NYOOO? Why would I!?
    speakerAnimation: 
    listenerAnimation: 
    stopMusic: 0
    eventsToDo: []
  - isPlayer: 1
    emotion: 0
    dialogue: Nevermind. It's safe to say it went missing between <b>3pm</b> and
      <b>4pm</b>.
    speakerAnimation: 
    listenerAnimation: 
    stopMusic: 0
    eventsToDo: []
  - isPlayer: 0
    emotion: 0
    dialogue: Good job, I guess.
    speakerAnimation: 
    listenerAnimation: 
    stopMusic: 0
    eventsToDo: []
  - isPlayer: 0
    emotion: 0
    dialogue: BUT WAIT, NYA!
    speakerAnimation: 
    listenerAnimation: 
    stopMusic: 0
    eventsToDo: []
  - isPlayer: 0
    emotion: 0
    dialogue: That means the fake eyepatch went missing during <b>dinner</b>!
    speakerAnimation: 
    listenerAnimation: 
    stopMusic: 0
    eventsToDo: []
  - isPlayer: 1
    emotion: 0
    dialogue: ...I guess so? Does it matter if it's the fake one?
    speakerAnimation: 
    listenerAnimation: 
    stopMusic: 0
    eventsToDo: []
  - isPlayer: 0
    emotion: 0
    dialogue: OF COURSE, NYA! MY WHOLE CREW WAS PRESENT FOR <b>DINNER</b> AT THE
      <b>FOREST</b>!
    speakerAnimation: 
    listenerAnimation: 
    stopMusic: 0
    eventsToDo: []
  - isPlayer: 0
    emotion: 0
    dialogue: THAT MEANS SOMEONE IN MY CREW IS A SERIAL EYEPATCH THIEF!
    speakerAnimation: 
    listenerAnimation: 
    stopMusic: 0
    eventsToDo: []
  - isPlayer: 0
    emotion: 0
    dialogue: WHAT ARE YOU WAITING FOR? GO DO YOUR JOB AND ASK AROUND, NYA!
    speakerAnimation: 
    listenerAnimation: 
    stopMusic: 0
    eventsToDo:
    - evidenceToGive: {fileID: 11400000, guid: c88ddeb933583aa48bdc91363b0f28b4, type: 2}
      evidenceToRemove: {fileID: 11400000, guid: 813d383b59afb6c4cae1fcd92dc15e5c, type: 2}
      objectiveToComplete: {fileID: 0}
