%YAML 1.1
%TAG !u! tag:unity3d.com,2011:
--- !u!114 &11400000
MonoBehaviour:
  m_ObjectHideFlags: 0
  m_CorrespondingSourceObject: {fileID: 0}
  m_PrefabInstance: {fileID: 0}
  m_PrefabAsset: {fileID: 0}
  m_GameObject: {fileID: 0}
  m_Enabled: 1
  m_EditorHideFlags: 0
  m_Script: {fileID: 11500000, guid: f75cb1898a8bfa04b93a1c496f8c3060, type: 3}
  m_Name: CrateDustOutline_2 CUT
  m_EditorClassIdentifier: 
  evidenceName: Dust Outlines - Revised
  evidenceDescription: 'The dust is in the shape of two different sized eyepatches.

    Suddenly
    it doesn''t look as mesmerizing...'
  evidenceObject: {fileID: 4052257643595997398, guid: fc70d077e7913fb42991a74104ab5f79, type: 3}
  evidenceImage: {fileID: 21300000, guid: e94bbaf5411335449b93b141240eeb8e, type: 3}
  startingRotation: {x: -45, y: -180, z: 0}
