%YAML 1.1
%TAG !u! tag:unity3d.com,2011:
--- !u!114 &11400000
MonoBehaviour:
  m_ObjectHideFlags: 0
  m_CorrespondingSourceObject: {fileID: 0}
  m_PrefabInstance: {fileID: 0}
  m_PrefabAsset: {fileID: 0}
  m_GameObject: {fileID: 0}
  m_Enabled: 1
  m_EditorHideFlags: 0
  m_Script: {fileID: 11500000, guid: f75cb1898a8bfa04b93a1c496f8c3060, type: 3}
  m_Name: E_15
  m_EditorClassIdentifier: 
  evidenceName: Shasha's Testimony #6
  testimony: 0
  evidenceDescription: <color=red><b>Shasha</color></b> claims he doesn't own an
    eyepatch.
  evidenceObject: {fileID: 4052257643595997398, guid: 589dca4088a2d334d916c7c875fef971, type: 3}
  evidenceImage: {fileID: 21300000, guid: a5234b053f3554042995e700f581ea64, type: 3}
  startingRotation: {x: 0, y: 0, z: 0}
