%YAML 1.1
%TAG !u! tag:unity3d.com,2011:
--- !u!114 &11400000
MonoBehaviour:
  m_ObjectHideFlags: 0
  m_CorrespondingSourceObject: {fileID: 0}
  m_PrefabInstance: {fileID: 0}
  m_PrefabAsset: {fileID: 0}
  m_GameObject: {fileID: 0}
  m_Enabled: 1
  m_EditorHideFlags: 0
  m_Script: {fileID: 11500000, guid: 210c7ab1c5463d34588351dc1be84938, type: 3}
  m_Name: Owl_Finale
  m_EditorClassIdentifier: 
  comment: 
  nodes:
  - isPlayer: 0
    emotion: 0
    dialogue: Oh, it seems you've finished. Let me see...
    speakerAnimation: 
    listenerAnimation: 
    eventsToDo: []
  - isPlayer: 0
    emotion: 0
    dialogue: 'Interesting, interesting! You say it was Grenn, the

      cabin frog?'
    speakerAnimation: 
    listenerAnimation: 
    eventsToDo: []
  - isPlayer: 1
    emotion: 0
    dialogue: 'They gave the eyepatch

      over themself.'
    speakerAnimation: 
    listenerAnimation: 
    eventsToDo: []
  - isPlayer: 1
    emotion: 0
    dialogue: ...After trying to lie their way out.
    speakerAnimation: 
    listenerAnimation: 
    eventsToDo: []
  - isPlayer: 0
    emotion: 0
    dialogue: Hoho! What if they were telling the truth? I sure hope it's the right
      eyepatch!
    speakerAnimation: 
    listenerAnimation: 
    eventsToDo: []
  - isPlayer: 1
    emotion: 0
    dialogue: ...
    speakerAnimation: 
    listenerAnimation: 
    eventsToDo: []
  - isPlayer: 0
    emotion: 0
    dialogue: I'm joking, of course.
    speakerAnimation: 
    listenerAnimation: 
    eventsToDo: []
  - isPlayer: 1
    emotion: 0
    dialogue: 'So what''s going to happen

      to Grenn?'
    speakerAnimation: 
    listenerAnimation: 
    eventsToDo: []
  - isPlayer: 0
    emotion: 0
    dialogue: It's just petty theft. I'll leave it to the Kaptain to decide.
    speakerAnimation: 
    listenerAnimation: 
    eventsToDo: []
  - isPlayer: 0
    emotion: 0
    dialogue: Why? Feeling a little bad?
    speakerAnimation: 
    listenerAnimation: 
    eventsToDo: []
  - isPlayer: 1
    emotion: 0
    dialogue: No, I'm just glad this back and forth is over with...
    speakerAnimation: 
    listenerAnimation: 
    eventsToDo: []
  - isPlayer: 0
    emotion: 0
    dialogue: 'HOHO! Wish you had

      wings, eh?'
    speakerAnimation: 
    listenerAnimation: 
    eventsToDo: []
  - isPlayer: 0
    emotion: 0
    dialogue: ' Anyways, good job! You should give the Kaptain his long awaited eyepatch
      back.'
    speakerAnimation: 
    listenerAnimation: 
    eventsToDo:
    - evidenceToGive: {fileID: 0}
      evidenceToRemove: {fileID: 11400000, guid: 45e656a9f8eb0904eb9c58f5ff082e9e, type: 2}
      objectiveToComplete: {fileID: 11400000, guid: a5666d8aded453e4698a4a9a36e31442, type: 2}
    - evidenceToGive: {fileID: 0}
      evidenceToRemove: {fileID: 0}
      objectiveToComplete: {fileID: 11400000, guid: 0d6047c2c8fa1a6408bc655d0d341900, type: 2}
    - evidenceToGive: {fileID: 0}
      evidenceToRemove: {fileID: 0}
      objectiveToComplete: {fileID: 11400000, guid: d6a3adb355ec39540867f529da34bf7d, type: 2}
    - evidenceToGive: {fileID: 0}
      evidenceToRemove: {fileID: 0}
      objectiveToComplete: {fileID: 11400000, guid: d4f0f987640cf0948b6178af982023c4, type: 2}
