%YAML 1.1
%TAG !u! tag:unity3d.com,2011:
--- !u!1001 &8275249023921598945
PrefabInstance:
  m_ObjectHideFlags: 0
  serializedVersion: 2
  m_Modification:
    m_TransformParent: {fileID: 0}
    m_Modifications:
    - target: {fileID: 1444183134656951680, guid: 960450e382f7f0941ae81ee1ed95dec4, type: 3}
      propertyPath: m_Name
      value: Dori - NPC
      objectReference: {fileID: 0}
    - target: {fileID: 1444183134656951682, guid: 960450e382f7f0941ae81ee1ed95dec4, type: 3}
      propertyPath: dialogueProfile
      value: 
      objectReference: {fileID: 11400000, guid: fc8c757b3ccd7814f80f88f19c4c9843, type: 2}
    - target: {fileID: 1444183134656951683, guid: 960450e382f7f0941ae81ee1ed95dec4, type: 3}
      propertyPath: m_RootOrder
      value: 0
      objectReference: {fileID: 0}
    - target: {fileID: 1444183134656951683, guid: 960450e382f7f0941ae81ee1ed95dec4, type: 3}
      propertyPath: m_LocalPosition.x
      value: -15.456238
      objectReference: {fileID: 0}
    - target: {fileID: 1444183134656951683, guid: 960450e382f7f0941ae81ee1ed95dec4, type: 3}
      propertyPath: m_LocalPosition.y
      value: 0.00000047683716
      objectReference: {fileID: 0}
    - target: {fileID: 1444183134656951683, guid: 960450e382f7f0941ae81ee1ed95dec4, type: 3}
      propertyPath: m_LocalPosition.z
      value: -13.565158
      objectReference: {fileID: 0}
    - target: {fileID: 1444183134656951683, guid: 960450e382f7f0941ae81ee1ed95dec4, type: 3}
      propertyPath: m_LocalRotation.w
      value: 1
      objectReference: {fileID: 0}
    - target: {fileID: 1444183134656951683, guid: 960450e382f7f0941ae81ee1ed95dec4, type: 3}
      propertyPath: m_LocalRotation.x
      value: 0
      objectReference: {fileID: 0}
    - target: {fileID: 1444183134656951683, guid: 960450e382f7f0941ae81ee1ed95dec4, type: 3}
      propertyPath: m_LocalRotation.y
      value: 0
      objectReference: {fileID: 0}
    - target: {fileID: 1444183134656951683, guid: 960450e382f7f0941ae81ee1ed95dec4, type: 3}
      propertyPath: m_LocalRotation.z
      value: 0
      objectReference: {fileID: 0}
    - target: {fileID: 1444183134656951683, guid: 960450e382f7f0941ae81ee1ed95dec4, type: 3}
      propertyPath: m_LocalEulerAnglesHint.x
      value: 0
      objectReference: {fileID: 0}
    - target: {fileID: 1444183134656951683, guid: 960450e382f7f0941ae81ee1ed95dec4, type: 3}
      propertyPath: m_LocalEulerAnglesHint.y
      value: 0
      objectReference: {fileID: 0}
    - target: {fileID: 1444183134656951683, guid: 960450e382f7f0941ae81ee1ed95dec4, type: 3}
      propertyPath: m_LocalEulerAnglesHint.z
      value: 0
      objectReference: {fileID: 0}
    - target: {fileID: 1444183134656951741, guid: 960450e382f7f0941ae81ee1ed95dec4, type: 3}
      propertyPath: m_Controller
      value: 
      objectReference: {fileID: 9100000, guid: 000bbe97c7da1154180265984b7b5e6a, type: 2}
    - target: {fileID: 1444183134946764696, guid: 960450e382f7f0941ae81ee1ed95dec4, type: 3}
      propertyPath: m_LocalRotation.w
      value: 0.9238795
      objectReference: {fileID: 0}
    - target: {fileID: 1444183134946764696, guid: 960450e382f7f0941ae81ee1ed95dec4, type: 3}
      propertyPath: m_LocalRotation.x
      value: 0.3826835
      objectReference: {fileID: 0}
    - target: {fileID: 1444183134946764696, guid: 960450e382f7f0941ae81ee1ed95dec4, type: 3}
      propertyPath: m_LocalRotation.y
      value: -0
      objectReference: {fileID: 0}
    - target: {fileID: 1444183134946764696, guid: 960450e382f7f0941ae81ee1ed95dec4, type: 3}
      propertyPath: m_LocalRotation.z
      value: -0
      objectReference: {fileID: 0}
    - target: {fileID: 1444183134946764698, guid: 960450e382f7f0941ae81ee1ed95dec4, type: 3}
      propertyPath: m_Sprite
      value: 
      objectReference: {fileID: 8835159535424430012, guid: 05f11bf44f5d34c42a1ea28be2482a2d, type: 3}
    - target: {fileID: 2097818190815023197, guid: 960450e382f7f0941ae81ee1ed95dec4, type: 3}
      propertyPath: m_LocalPosition.x
      value: -0.09
      objectReference: {fileID: 0}
    - target: {fileID: 2097818190815023197, guid: 960450e382f7f0941ae81ee1ed95dec4, type: 3}
      propertyPath: m_LocalPosition.z
      value: 0.41
      objectReference: {fileID: 0}
    m_RemovedComponents: []
  m_SourcePrefab: {fileID: 100100000, guid: 960450e382f7f0941ae81ee1ed95dec4, type: 3}
