%YAML 1.1
%TAG !u! tag:unity3d.com,2011:
--- !u!114 &11400000
MonoBehaviour:
  m_ObjectHideFlags: 0
  m_CorrespondingSourceObject: {fileID: 0}
  m_PrefabInstance: {fileID: 0}
  m_PrefabAsset: {fileID: 0}
  m_GameObject: {fileID: 0}
  m_Enabled: 1
  m_EditorHideFlags: 0
  m_Script: {fileID: 11500000, guid: 210c7ab1c5463d34588351dc1be84938, type: 3}
  m_Name: Frog_01
  m_EditorClassIdentifier: 
  comment: D4
  nodes:
  - isPlayer: 0
    emotion: 0
    dialogue: 'Foxy friend! Ready

      for bath now?'
    speakerAnimation: 
    listenerAnimation: 
    eventsToDo: []
  - isPlayer: 1
    emotion: 0
    dialogue: Still a no from me, Grenn. Do you happen to know what Klawz was doing
      after <b>lunch</b>?
    speakerAnimation: 
    listenerAnimation: 
    eventsToDo: []
  - isPlayer: 0
    emotion: 0
    dialogue: Hmmm, I play in the <b>forest</b> after <b>lunch</b> so no idea!
    speakerAnimation: 
    listenerAnimation: 
    eventsToDo: []
  - isPlayer: 1
    emotion: 0
    dialogue: Huh? Shasha said you were there when Dori dropped by the <b>hut</b>
      with Klawz's eyepatch.
    speakerAnimation: 
    listenerAnimation: 
    eventsToDo: []
  - isPlayer: 0
    emotion: 0
    dialogue: 'Oooh, yah! I play in <b>forest</b> with Hammie first then

      go
      to <b>hut</b>.'
    speakerAnimation: 
    listenerAnimation: 
    eventsToDo: []
  - isPlayer: 1
    emotion: 0
    dialogue: Hammie...? You mean Shasha.
    speakerAnimation: 
    listenerAnimation: 
    eventsToDo: []
  - isPlayer: 0
    emotion: 0
    dialogue: Hammie.
    speakerAnimation: 
    listenerAnimation: 
    eventsToDo: []
  - isPlayer: 0
    emotion: 0
    dialogue: Then Doggie dropped by around <b>3pm</b>. Kitty Klawz was cat napping!
    speakerAnimation: 
    listenerAnimation: 
    eventsToDo: []
  - isPlayer: 1
    emotion: 0
    dialogue: 3pm? ...Are you sure?
    speakerAnimation: 
    listenerAnimation: 
    eventsToDo: []
  - isPlayer: 0
    emotion: 0
    dialogue: I can read time but not words. I sure!
    speakerAnimation: 
    listenerAnimation: 
    eventsToDo: []
  - isPlayer: 1
    emotion: 0
    dialogue: Then why did Dori say <b>2pm</b> to me? Huh...
    speakerAnimation: 
    listenerAnimation: 
    eventsToDo:
    - evidenceToGive: {fileID: 11400000, guid: 48c2d53adc118124ba17a523c76be730, type: 2}
      evidenceToRemove: {fileID: 11400000, guid: 434c6f60335d283458e7614c686108a7, type: 2}
      objectiveToComplete: {fileID: 0}
    - evidenceToGive: {fileID: 11400000, guid: 5a23a5763eabf1d44a44e273dae084f8, type: 2}
      evidenceToRemove: {fileID: 0}
      objectiveToComplete: {fileID: 0}
