%YAML 1.1
%TAG !u! tag:unity3d.com,2011:
--- !u!114 &11400000
MonoBehaviour:
  m_ObjectHideFlags: 0
  m_CorrespondingSourceObject: {fileID: 0}
  m_PrefabInstance: {fileID: 0}
  m_PrefabAsset: {fileID: 0}
  m_GameObject: {fileID: 0}
  m_Enabled: 1
  m_EditorHideFlags: 0
  m_Script: {fileID: 11500000, guid: 210c7ab1c5463d34588351dc1be84938, type: 3}
  m_Name: Ham_07
  m_EditorClassIdentifier: 
  comment: E11
  nodes:
  - isPlayer: 0
    emotion: 0
    dialogue: S-Someone stole the fake eyepatch during dinner? Um... It wasn't me...
    speakerAnimation: 
    listenerAnimation: 
    eventsToDo: []
  - isPlayer: 0
    emotion: 0
    dialogue: DON'T LOOK AT ME! I WAS JUST DELIVERING FOOD!
    speakerAnimation: 
    listenerAnimation: 
    eventsToDo: []
  - isPlayer: 1
    emotion: 0
    dialogue: ...Why do you have to make everything sound so suspicious?
    speakerAnimation: 
    listenerAnimation: 
    eventsToDo: []
