%YAML 1.1
%TAG !u! tag:unity3d.com,2011:
--- !u!114 &11400000
MonoBehaviour:
  m_ObjectHideFlags: 0
  m_CorrespondingSourceObject: {fileID: 0}
  m_PrefabInstance: {fileID: 0}
  m_PrefabAsset: {fileID: 0}
  m_GameObject: {fileID: 0}
  m_Enabled: 1
  m_EditorHideFlags: 0
  m_Script: {fileID: 11500000, guid: 210c7ab1c5463d34588351dc1be84938, type: 3}
  m_Name: Ham_Receipt
  m_EditorClassIdentifier: 
  comment: E3
  nodes:
  - isPlayer: 0
    emotion: 0
    dialogue: ...THR-THR-THROW IT AWAY!
    speakerAnimation: 
    listenerAnimation: 
    stopMusic: 0
    eventsToDo: []
  - isPlayer: 1
    emotion: 0
    dialogue: Hm? Why?
    speakerAnimation: 
    listenerAnimation: 
    stopMusic: 0
    eventsToDo: []
  - isPlayer: 0
    emotion: 0
    dialogue: It's litter! Trash! Garbage!
    speakerAnimation: 
    listenerAnimation: 
    stopMusic: 0
    eventsToDo: []
  - isPlayer: 1
    emotion: 0
    dialogue: Really? It seems kinda important.
    speakerAnimation: 
    listenerAnimation: 
    stopMusic: 0
    eventsToDo: []
  - isPlayer: 0
    emotion: 0
    dialogue: NOPE! Throw it away!
    speakerAnimation: 
    listenerAnimation: 
    stopMusic: 0
    eventsToDo: []
  - isPlayer: 1
    emotion: 0
    dialogue: ...
    speakerAnimation: 
    listenerAnimation: 
    stopMusic: 0
    eventsToDo: []
  - isPlayer: 0
    emotion: 0
    dialogue: ...Please.
    speakerAnimation: 
    listenerAnimation: 
    stopMusic: 0
    eventsToDo: []
  - isPlayer: 1
    emotion: 0
    dialogue: 'I think I''ll hold onto it

      for now.'
    speakerAnimation: 
    listenerAnimation: 
    stopMusic: 0
    eventsToDo: []
