%YAML 1.1
%TAG !u! tag:unity3d.com,2011:
--- !u!114 &11400000
MonoBehaviour:
  m_ObjectHideFlags: 0
  m_CorrespondingSourceObject: {fileID: 0}
  m_PrefabInstance: {fileID: 0}
  m_PrefabAsset: {fileID: 0}
  m_GameObject: {fileID: 0}
  m_Enabled: 1
  m_EditorHideFlags: 0
  m_Script: {fileID: 11500000, guid: 210c7ab1c5463d34588351dc1be84938, type: 3}
  m_Name: Ham_Bottle
  m_EditorClassIdentifier: 
  comment: E15
  nodes:
  - isPlayer: 0
    emotion: 0
    dialogue: Oh, a lot of vendors in town use this type of bottle.
    speakerAnimation: 
    listenerAnimation: 
    stopMusic: 0
    eventsToDo: []
  - isPlayer: 0
    emotion: 0
    dialogue: Usually for weird ingredients and drugs.
    speakerAnimation: 
    listenerAnimation: 
    stopMusic: 0
    eventsToDo: []
  - isPlayer: 0
    emotion: 0
    dialogue: Wait... you're not a druggie, are you?
    speakerAnimation: 
    listenerAnimation: 
    stopMusic: 0
    eventsToDo: []
  - isPlayer: 1
    emotion: 0
    dialogue: What? No!
    speakerAnimation: 
    listenerAnimation: 
    stopMusic: 0
    eventsToDo: []
