%YAML 1.1
%TAG !u! tag:unity3d.com,2011:
--- !u!114 &11400000
MonoBehaviour:
  m_ObjectHideFlags: 0
  m_CorrespondingSourceObject: {fileID: 0}
  m_PrefabInstance: {fileID: 0}
  m_PrefabAsset: {fileID: 0}
  m_GameObject: {fileID: 0}
  m_Enabled: 1
  m_EditorHideFlags: 0
  m_Script: {fileID: 11500000, guid: 210c7ab1c5463d34588351dc1be84938, type: 3}
  m_Name: Ham_Fallback
  m_EditorClassIdentifier: 
  comment: Fallback
  nodes:
  - descriptiveName: 
    emotion: 0
    speakerAnimation: 
    listenerAnimation: 
    eventsToDo: []
    comment: 
    dialogue: ...Wha-What's this? Please don't prank me...
    isPlayer: 0
