%YAML 1.1
%TAG !u! tag:unity3d.com,2011:
--- !u!114 &11400000
MonoBehaviour:
  m_ObjectHideFlags: 0
  m_CorrespondingSourceObject: {fileID: 0}
  m_PrefabInstance: {fileID: 0}
  m_PrefabAsset: {fileID: 0}
  m_GameObject: {fileID: 0}
  m_Enabled: 1
  m_EditorHideFlags: 0
  m_Script: {fileID: 11500000, guid: cdbb3e84a3bdaf94b86caa6c0c2f0b4c, type: 3}
  m_Name: Cat_PawPrints
  m_EditorClassIdentifier: 
  comment: 
  nodes:
  - nodeType: 0
    emotion: 0
    eventTrigger: 0
    evidence: 0
    comment: 
    text: i told you about the paw prints right?
    isPlayer: 0
