%YAML 1.1
%TAG !u! tag:unity3d.com,2011:
--- !u!114 &11400000
MonoBehaviour:
  m_ObjectHideFlags: 0
  m_CorrespondingSourceObject: {fileID: 0}
  m_PrefabInstance: {fileID: 0}
  m_PrefabAsset: {fileID: 0}
  m_GameObject: {fileID: 0}
  m_Enabled: 1
  m_EditorHideFlags: 0
  m_Script: {fileID: 11500000, guid: 210c7ab1c5463d34588351dc1be84938, type: 3}
  m_Name: Dog_05
  m_EditorClassIdentifier: 
  comment: C8
  nodes:
  - isPlayer: 0
    emotion: 0
    dialogue: During dinner? Hmm...
    speakerAnimation: 
    listenerAnimation: 
    eventsToDo: []
  - isPlayer: 0
    emotion: 0
    dialogue: Sorry, I was too distracted to notice much during <b>dinner</b>...
    speakerAnimation: 
    listenerAnimation: 
    eventsToDo: []
  - isPlayer: 1
    emotion: 0
    dialogue: Distracted by what?
    speakerAnimation: 
    listenerAnimation: 
    eventsToDo: []
  - isPlayer: 0
    emotion: 0
    dialogue: OH, UH... N-NOTHING!
    speakerAnimation: 
    listenerAnimation: 
    eventsToDo: []
  - isPlayer: 0
    emotion: 0
    dialogue: Um... so you said Shasha replaced the eyepatch before leaving?
    speakerAnimation: 
    listenerAnimation: 
    eventsToDo: []
  - isPlayer: 0
    emotion: 0
    dialogue: Well that explains why it smelt 'new'.
    speakerAnimation: 
    listenerAnimation: 
    eventsToDo: []
  - isPlayer: 1
    emotion: 0
    dialogue: You didn't find the actual one while working?
    speakerAnimation: 
    listenerAnimation: 
    eventsToDo: []
  - isPlayer: 0
    emotion: 0
    dialogue: Nope. I was working for an hour and only saw the fake one beside the
      Kaptain.
    speakerAnimation: 
    listenerAnimation: 
    eventsToDo: []
