%YAML 1.1
%TAG !u! tag:unity3d.com,2011:
--- !u!114 &11400000
MonoBehaviour:
  m_ObjectHideFlags: 0
  m_CorrespondingSourceObject: {fileID: 0}
  m_PrefabInstance: {fileID: 0}
  m_PrefabAsset: {fileID: 0}
  m_GameObject: {fileID: 0}
  m_Enabled: 1
  m_EditorHideFlags: 0
  m_Script: {fileID: 11500000, guid: 008dcf435eddb2949a98e176bd8be2cb, type: 3}
  m_Name: Klawz_2PM_01
  m_EditorClassIdentifier: 
  isNull: 0
  revealOnComplete: {fileID: 11400000, guid: e2bf433f8259633408658cd1da679223, type: 2}
  description: Was taking a nap at the <b>hut</b> when <color=red><b>Dori</color=red></b>
    gave his eyepatch back.
  updatesIntoOn: {fileID: 0}
  updatesInto: {fileID: 0}
