%YAML 1.1
%TAG !u! tag:unity3d.com,2011:
--- !u!114 &11400000
MonoBehaviour:
  m_ObjectHideFlags: 0
  m_CorrespondingSourceObject: {fileID: 0}
  m_PrefabInstance: {fileID: 0}
  m_PrefabAsset: {fileID: 0}
  m_GameObject: {fileID: 0}
  m_Enabled: 1
  m_EditorHideFlags: 0
  m_Script: {fileID: 11500000, guid: 008dcf435eddb2949a98e176bd8be2cb, type: 3}
  m_Name: Shasha_2PM_01
  m_EditorClassIdentifier: 
  isNull: 0
  revealOnComplete: {fileID: 11400000, guid: 32956dda170d8f540914b45c978da89a, type: 2}
  description: At the <b>hut</b>. <color=red><b>Dori</color=red></b> says he witnessed 
    her giving the eyepatch back.
  updatesIntoOn: {fileID: 11400000, guid: c989e44ed5cac694e9a56910055de4f9, type: 2}
  updatesInto: {fileID: 11400000, guid: 2cff9c06f914b1a44b39a586a1c9ede2, type: 2}
