%YAML 1.1
%TAG !u! tag:unity3d.com,2011:
--- !u!114 &11400000
MonoBehaviour:
  m_ObjectHideFlags: 0
  m_CorrespondingSourceObject: {fileID: 0}
  m_PrefabInstance: {fileID: 0}
  m_PrefabAsset: {fileID: 0}
  m_GameObject: {fileID: 0}
  m_Enabled: 1
  m_EditorHideFlags: 0
  m_Script: {fileID: 11500000, guid: 008dcf435eddb2949a98e176bd8be2cb, type: 3}
  m_Name: Shasha_2PM_03
  m_EditorClassIdentifier: 
  isNull: 0
  revealOnComplete: {fileID: 0}
  description: Working at the <b>hut</b>.
  updatesIntoOn: {fileID: 0}
  updatesInto: {fileID: 0}
